EESchema Schematic File Version 2
LIBS:snaiks
LIBS:snaiks-demo-2-cache
EELAYER 25 0
EELAYER END
$Descr A4 11693 8268
encoding utf-8
Sheet 1 1
Title "Snaiks Demo 2 - Moving Light"
Date "2017-03-19"
Rev "1.0"
Comp "Mechatronik Karl Zeilhofer"
Comment1 ""
Comment2 ""
Comment3 ""
Comment4 ""
$EndDescr
$Comp
L DOUT DOUT101
U 1 1 58CBA4E9
P 8950 1550
F 0 "DOUT101" H 9150 1700 60  0000 C CNN
F 1 "Led1" H 9150 1400 60  0000 C CNN
F 2 "" H 9050 1300 60  0000 C CNN
F 3 "" H 9050 1300 60  0000 C CNN
	1    8950 1550
	1    0    0    -1  
$EndComp
$Comp
L DIN DIN101
U 1 1 58CE7A5C
P 2600 1600
F 0 "DIN101" H 2350 1750 60  0000 C CNN
F 1 "PingPong" H 2300 1450 60  0000 C CNN
F 2 "" H 2100 1350 60  0000 C CNN
F 3 "" H 2100 1350 60  0000 C CNN
	1    2600 1600
	1    0    0    -1  
$EndComp
$Comp
L MF MF101
U 1 1 58CE7B0C
P 3950 1700
F 0 "MF101" H 3750 2100 60  0000 C CNN
F 1 "MF" H 3850 2000 60  0000 C CNN
F 2 "" H 3750 1600 60  0000 C CNN
F 3 "" H 3750 1600 60  0000 C CNN
F 4 "0.5" H 3800 1900 60  0000 C CNN "Period"
	1    3950 1700
	1    0    0    -1  
$EndComp
Wire Wire Line
	2600 1600 3500 1600
Wire Wire Line
	4350 1750 4550 1750
Wire Wire Line
	4550 1750 4550 2050
Wire Wire Line
	4550 2050 3350 2050
Wire Wire Line
	3350 2050 3350 2450
Wire Wire Line
	3350 2450 3500 2450
Wire Wire Line
	4350 2600 4550 2600
Wire Wire Line
	4550 2600 4550 2900
Wire Wire Line
	4550 2900 3350 2900
Wire Wire Line
	3350 2900 3350 3300
Wire Wire Line
	3350 3300 3500 3300
Wire Wire Line
	4550 3450 4550 3750
Wire Wire Line
	4550 3750 3350 3750
Wire Wire Line
	3350 3750 3350 4150
Wire Wire Line
	3350 4150 3500 4150
NoConn ~ 4350 1650
NoConn ~ 4350 1850
NoConn ~ 4350 2500
NoConn ~ 4350 2700
Wire Wire Line
	4550 3450 4350 3450
$Comp
L MF MF102
U 1 1 58CE8119
P 3950 2550
F 0 "MF102" H 3750 2950 60  0000 C CNN
F 1 "MF" H 3850 2850 60  0000 C CNN
F 2 "" H 3750 2450 60  0000 C CNN
F 3 "" H 3750 2450 60  0000 C CNN
F 4 "0.5" H 3800 2750 60  0000 C CNN "Period"
	1    3950 2550
	1    0    0    -1  
$EndComp
$Comp
L MF MF103
U 1 1 58CE8170
P 3950 3400
F 0 "MF103" H 3750 3800 60  0000 C CNN
F 1 "MF" H 3850 3700 60  0000 C CNN
F 2 "" H 3750 3300 60  0000 C CNN
F 3 "" H 3750 3300 60  0000 C CNN
F 4 "0.5" H 3800 3600 60  0000 C CNN "Period"
	1    3950 3400
	1    0    0    -1  
$EndComp
$Comp
L MF MF104
U 1 1 58CE81CE
P 3950 4250
F 0 "MF104" H 3750 4650 60  0000 C CNN
F 1 "MF" H 3850 4550 60  0000 C CNN
F 2 "" H 3750 4150 60  0000 C CNN
F 3 "" H 3750 4150 60  0000 C CNN
F 4 "0.5" H 3800 4450 60  0000 C CNN "Period"
	1    3950 4250
	1    0    0    -1  
$EndComp
NoConn ~ 4350 3350
NoConn ~ 4350 3550
NoConn ~ 4350 4200
NoConn ~ 4350 4300
NoConn ~ 4350 4400
Wire Wire Line
	3100 1800 3100 5550
Wire Wire Line
	3100 1800 3500 1800
Wire Wire Line
	3100 2650 3500 2650
Connection ~ 3100 2000
Wire Wire Line
	3100 3500 3500 3500
Connection ~ 3100 2650
Wire Wire Line
	3100 4350 3500 4350
Connection ~ 3100 3500
$Comp
L DOR DOR101
U 1 1 58CE8EBE
P 8200 1700
F 0 "DOR101" H 8000 2100 60  0000 C CNN
F 1 "DOR" H 8100 2000 60  0000 C CNN
F 2 "" H 8000 1600 60  0000 C CNN
F 3 "" H 8000 1600 60  0000 C CNN
	1    8200 1700
	1    0    0    -1  
$EndComp
$Comp
L DOR DOR102
U 1 1 58CE8F4B
P 8200 2550
F 0 "DOR102" H 8000 2950 60  0000 C CNN
F 1 "DOR" H 8100 2850 60  0000 C CNN
F 2 "" H 8000 2450 60  0000 C CNN
F 3 "" H 8000 2450 60  0000 C CNN
	1    8200 2550
	1    0    0    -1  
$EndComp
$Comp
L DOR DOR103
U 1 1 58CE8FD7
P 8200 3400
F 0 "DOR103" H 8000 3800 60  0000 C CNN
F 1 "DOR" H 8100 3700 60  0000 C CNN
F 2 "" H 8000 3300 60  0000 C CNN
F 3 "" H 8000 3300 60  0000 C CNN
	1    8200 3400
	1    0    0    -1  
$EndComp
$Comp
L DOR DOR104
U 1 1 58CE902F
P 8200 4250
F 0 "DOR104" H 8000 4650 60  0000 C CNN
F 1 "DOR" H 8100 4550 60  0000 C CNN
F 2 "" H 8000 4150 60  0000 C CNN
F 3 "" H 8000 4150 60  0000 C CNN
	1    8200 4250
	1    0    0    -1  
$EndComp
$Comp
L MF MF105
U 1 1 58CE9089
P 6650 1950
F 0 "MF105" H 6000 2250 60  0000 C CNN
F 1 "MF" H 6550 2250 60  0000 C CNN
F 2 "" H 6450 1850 60  0000 C CNN
F 3 "" H 6450 1850 60  0000 C CNN
F 4 "0.2" H 6500 2150 60  0000 C CNN "Period"
	1    6650 1950
	1    0    0    -1  
$EndComp
$Comp
L MF MF106
U 1 1 58CE912B
P 6650 2800
F 0 "MF106" H 5950 3100 60  0000 C CNN
F 1 "MF" H 6550 3100 60  0000 C CNN
F 2 "" H 6450 2700 60  0000 C CNN
F 3 "" H 6450 2700 60  0000 C CNN
F 4 "0.2" H 6500 3000 60  0000 C CNN "Period"
	1    6650 2800
	1    0    0    -1  
$EndComp
$Comp
L MF MF107
U 1 1 58CE9186
P 6650 3650
F 0 "MF107" H 5950 3950 60  0000 C CNN
F 1 "MF" H 6550 3950 60  0000 C CNN
F 2 "" H 6450 3550 60  0000 C CNN
F 3 "" H 6450 3550 60  0000 C CNN
F 4 "0.2" H 6500 3850 60  0000 C CNN "Period"
	1    6650 3650
	1    0    0    -1  
$EndComp
$Comp
L MF MF108
U 1 1 58CE91EE
P 6650 4500
F 0 "MF108" H 6000 4750 60  0000 C CNN
F 1 "MF" H 6550 4800 60  0000 C CNN
F 2 "" H 6450 4400 60  0000 C CNN
F 3 "" H 6450 4400 60  0000 C CNN
F 4 "0.2" H 6500 4700 60  0000 C CNN "Period"
	1    6650 4500
	1    0    0    -1  
$EndComp
$Comp
L DIN DIN102
U 1 1 58CE9270
P 2600 5050
F 0 "DIN102" H 2350 5200 60  0000 C CNN
F 1 "Pong" H 2300 4900 60  0000 C CNN
F 2 "" H 2100 4800 60  0000 C CNN
F 3 "" H 2100 4800 60  0000 C CNN
	1    2600 5050
	1    0    0    -1  
$EndComp
$Comp
L DOR DOR105
U 1 1 58CE9372
P 5250 4950
F 0 "DOR105" H 5050 5350 60  0000 C CNN
F 1 "DOR" H 5150 5250 60  0000 C CNN
F 2 "" H 5050 4850 60  0000 C CNN
F 3 "" H 5050 4850 60  0000 C CNN
	1    5250 4950
	1    0    0    -1  
$EndComp
Wire Wire Line
	4350 4100 7750 4100
Wire Wire Line
	4600 4100 4600 4850
Wire Wire Line
	4600 4850 4800 4850
Wire Wire Line
	7750 4100 7750 4150
Connection ~ 4600 4100
Wire Wire Line
	7750 4350 7050 4350
Wire Wire Line
	7050 3500 7750 3500
Wire Wire Line
	7050 2650 7750 2650
Wire Wire Line
	7050 1800 7750 1800
Wire Wire Line
	5650 4800 5900 4800
Wire Wire Line
	5900 4800 5900 4400
Wire Wire Line
	5900 4400 6200 4400
Wire Wire Line
	2600 5050 4800 5050
Wire Wire Line
	8600 1550 8950 1550
Wire Wire Line
	8950 2400 8600 2400
Wire Wire Line
	8600 3250 8950 3250
Wire Wire Line
	8950 4100 8600 4100
Wire Wire Line
	7050 4550 7250 4550
Wire Wire Line
	7250 4550 7250 4000
Wire Wire Line
	7250 4000 6000 4000
Wire Wire Line
	6000 4000 6000 3550
Wire Wire Line
	6000 3550 6200 3550
Wire Wire Line
	4350 3250 7750 3250
Wire Wire Line
	7750 3250 7750 3300
Wire Wire Line
	4350 2400 7750 2400
Wire Wire Line
	7750 2400 7750 2450
Wire Wire Line
	4350 1550 7750 1550
Wire Wire Line
	7750 1550 7750 1600
Wire Wire Line
	7050 3700 7250 3700
Wire Wire Line
	7250 3700 7250 3100
Wire Wire Line
	7250 3100 6050 3100
Wire Wire Line
	6050 3100 6050 2700
Wire Wire Line
	6050 2700 6200 2700
Wire Wire Line
	7050 2850 7250 2850
Wire Wire Line
	7250 2850 7250 2250
Wire Wire Line
	7250 2250 6050 2250
Wire Wire Line
	6050 2250 6050 1850
Wire Wire Line
	6050 1850 6200 1850
NoConn ~ 8600 1650
NoConn ~ 8600 1750
NoConn ~ 8600 1850
NoConn ~ 8600 2500
NoConn ~ 8600 2600
NoConn ~ 8600 2700
NoConn ~ 8600 3350
NoConn ~ 8600 3450
NoConn ~ 8600 3550
NoConn ~ 8600 4200
NoConn ~ 8600 4300
NoConn ~ 8600 4400
NoConn ~ 7050 4450
NoConn ~ 7050 4650
NoConn ~ 7050 3800
NoConn ~ 7050 3600
NoConn ~ 7050 2950
NoConn ~ 7050 2750
NoConn ~ 7050 2100
NoConn ~ 7050 2000
NoConn ~ 7050 1900
Wire Wire Line
	6200 2050 6150 2050
Wire Wire Line
	6150 2050 6150 5350
Wire Wire Line
	6150 5350 3100 5350
Connection ~ 3100 4350
Wire Wire Line
	6200 4600 6150 4600
Connection ~ 6150 4600
Wire Wire Line
	6200 3750 6150 3750
Connection ~ 6150 3750
Wire Wire Line
	6200 2900 6150 2900
Connection ~ 6150 2900
$Comp
L DOUT DOUT102
U 1 1 58CEDFD4
P 8950 2400
F 0 "DOUT102" H 9150 2550 60  0000 C CNN
F 1 "Led2" H 9150 2250 60  0000 C CNN
F 2 "" H 9050 2150 60  0000 C CNN
F 3 "" H 9050 2150 60  0000 C CNN
	1    8950 2400
	1    0    0    -1  
$EndComp
$Comp
L DOUT DOUT103
U 1 1 58CEE041
P 8950 3250
F 0 "DOUT103" H 9150 3400 60  0000 C CNN
F 1 "Led3" H 9150 3100 60  0000 C CNN
F 2 "" H 9050 3000 60  0000 C CNN
F 3 "" H 9050 3000 60  0000 C CNN
	1    8950 3250
	1    0    0    -1  
$EndComp
$Comp
L DOUT DOUT104
U 1 1 58CEE0AB
P 8950 4100
F 0 "DOUT104" H 9150 4250 60  0000 C CNN
F 1 "Led4" H 9150 3950 60  0000 C CNN
F 2 "" H 9050 3850 60  0000 C CNN
F 3 "" H 9050 3850 60  0000 C CNN
	1    8950 4100
	1    0    0    -1  
$EndComp
NoConn ~ 5650 4900
NoConn ~ 5650 5000
NoConn ~ 5650 5100
$Comp
L L DIN103
U 1 1 58CF7927
P 3100 5550
F 0 "DIN103" H 3100 5650 60  0001 C CNN
F 1 "L" H 3100 5450 60  0001 C CNN
F 2 "" H 2600 5300 60  0000 C CNN
F 3 "" H 2600 5300 60  0000 C CNN
F 4 "0" H 2950 5800 60  0001 C CNN "InitValue"
	1    3100 5550
	1    0    0    -1  
$EndComp
Connection ~ 3100 5350
$EndSCHEMATC
